{
  "type": "minecraft:crafting_shapeless",
  "ingredients": [
    {
      "item": "minecraft:diamond_block",
      "data": 0
    },
    {
      "item": "enchanter:ball",
      "data": 4
    },
    {
      "item": "minecraft:diamond_block",
      "data": 0
    },
    {
      "item": "enchanter:ball",
      "data": 7
    },
    {
      "item": "enchanter:ball",
      "data": 6
    },
    {
      "item": "enchanter:ball",
      "data": 7
    },
    {
      "item": "enchanter:ball",
      "data": 3
    }
  ],
  "result": {
    "item": "enchanter:ball",
    "count": 1,
    "data": 8
  }
}