{
  "type": "minecraft:crafting_shapeless",
  "ingredients": [
    {
      "item": "enchanter:ball",
      "data": 6
    },
    {
      "item": "enchanter:ball",
      "data": 7
    },
    {
      "item": "enchanter:ball",
      "data": 8
    },
    {
      "item": "enchanter:ball",
      "data": 7
    },
    {
      "item": "enchanter:ball",
      "data": 6
    }
  ],
  "result": {
    "item": "enchanter:ball",
    "count": 1,
    "data": 10
  }
}